%YAML 1.1
%TAG !u! tag:unity3d.com,2011:
--- !u!1045 &1
EditorBuildSettings:
  m_ObjectHideFlags: 0
  serializedVersion: 2
  m_Scenes:
  - enabled: 1
    path: Assets/_Custom/_Scenes/LoginSignupScene.unity
    guid: 4b71ab072f975c2478acc827a215a9a2
  - enabled: 1
    path: Assets/_Custom/_Scenes/StartupHelperScene.unity
    guid: 6d12ba0bef2103f4cbd68419d8f30fbe
  - enabled: 1
    path: Assets/_Custom/_Scenes/MainMenuScene.unity
    guid: b3070b60e23b5cc4cb9a036e7523cff3
  - enabled: 1
    path: Assets/_Custom/_Scenes/WorkoutScene.unity
    guid: 5a38acbbf264cc449b6ed51e97d9d338
  m_configObjects: {}
